name="Dancing Hitler Portrait"
tags={
	"Graphics"
}
picture="thumbnail.png"
version="1.1.0"
supported_version="1.15.*"
path="C:/Users/Username/Documents/Paradox Interactive/Hearts of Iron IV/mod/dancing-hitler-portrait"
remote_file_id="1854096755"